{
   "type":"FeatureCollection",
   "features":[
      {
         "type":"Feature",
         "geometry":{
            "type":"Point",
            "coordinates":[
               -112.0098791,
               34.7391876
            ]
         },
         "properties":{
            "name":"Barney Frank to Speak at UA College of Law",
            "description":"\r\n\u0026quot;Why We Need More Government and How We Can Pay for It\u0026quot; will be the subject of the 2014 McCormick Lecture to be given by former U.S. Rep. Barney Frank at 5:30 p.m. Oct. 16 at the James E. Rogers College of Law on the University of Arizona campus.\u0026nbsp;\r\n\r\nThe event,\u0026nbsp;hosted by the J. Byron McCormick Society for Law and Public Affairs, is free and open to the public. Space is limited, and registration is required at www.law.arizona.edu.\u0026nbsp;\r\n\r\nFrank served as a congressman from Massachusetts for more than three decades, starting in 1981. An outspoken and respected legislator known for his keen sense of humor, Frank played a key role in some of the most important legislation of the country\u0026#39;s recent history, including the repeal in 2011 of \u0026quot;don\u0026#39;t ask, don\u0026#39;t tell,\u0026quot; the official U.S. policy on service by gays and lesbians in the military instituted by the Clinton administration in 1994.\r\n\r\nAs chair of the House Financial Services Committee from 2007 to 2011, Frank helped craft the compromise bill to slow the tide of home mortgage foreclosures in the wake of the subprime mortgage crisis, as well as the subsequent $550 billion rescue plan and the landmark Dodd-Frank Wall Street Reform and Consumer Protection Act \u0026mdash; the sweeping set of regulatory reforms named partly after Frank and signed into law in July 2010, to prevent the recurrence of the financial crisis.\r\n\r\n\r\n\r\nFrank also led the passage of the Credit Cardholders\u0026#39; Bill of Rights Act, a measure lauded by consumer advocates, and fought to preserve affordable rental housing, as well as to reduce military spending in favor of providing for important quality-of-life needs at home.\r\n\r\nFrank graduated from Harvard University in 1962 and went on to pursue a Ph.D. He left before completing the degree to take a position as chief assistant to Boston Mayor Kevin White in 1968. Frank won a seat in the Massachusetts Legislature in 1972 and went on to become a national leader of the LGBT rights movement, introducing the state\u0026#39;s first two gay-rights bills in 1973.\r\n\r\nPriority seating in Ares Auditorium is available for members of the McCormick Society, invited guests and law students with confirmed reservations. An informal reception will follow Frank\u0026#39;s talk, which is scheduled for one hour.\r\n\r\n",
            "field_impact_map_locations":"\n  \n                                                              \n  ",
            "UUID":"633d0765-1bf5-447b-8ffb-36a93794cf87",
            "Byline":null,
            "Date of Publication":"\u003Cspan class=\u0022date-display-single\u0022 property=\u0022dc:date\u0022 datatype=\u0022xsd:dateTime\u0022 content=\u00222014-10-10T00:00:00-07:00\u0022\u003EFriday, October 10, 2014\u003C\/span\u003E",
            "Story images":"\u003Cimg typeof=\u0022foaf:Image\u0022 src=\u0022http:\/\/uanews.dev\/sites\/default\/files\/story-images\/101019_barney_frank_ap_328.jpg\u0022 width=\u0022605\u0022 height=\u0022328\u0022 alt=\u0022Barney Frank chaired the House Financial Services Committee from 2007 to 2011, helping to craft the bill that slowed the tide of home mortgage foreclosures.\u0022 \/\u003E",
            "Short Summary":"Influential former congressman served Massachusetts in the House for more than three decades.",
            "Path":"http:\/\/uanews.dev\/story\/barney-frank-to-speak-at-ua-college-of-law"
         }
      },
      {
         "type":"Feature",
         "geometry":{
            "type":"Point",
            "coordinates":[
               -110.7864984,
               33.3942223
            ]
         },
         "properties":{
            "name":"What\u0026#039;s the Future of International Higher Ed?",
            "description":"Technology and student exchanges are key to the future of international higher education, according to education, government and industry representatives who met at last week at a UA-hosted conference.\r\n\r\nThe University of Arizona Office of Global Initiatives hosted the 16th Consortium for North American Higher Education Collaboration Conference Oct. 8-10 to identify ways higher education institutions, governments and businesses can work together to address global challenges.\r\n\r\nAlso known as CONAHEC, the consortium is a nonprofit network of approximately 180 higher-education institutions from the United States, Canada and Mexico, as well as a select group of institutions from around the world. Its mission is to foster academic collaboration among institutions, organizations and agencies of higher education in Canada, Mexico and the United States. CONAHEC also promotes linkages between North America and higher-education entities around the world.\r\n\r\n\u0026quot;My view is the conference went really well,\u0026quot; said Mike Proctor, UA vice president for global initiatives. \u0026quot;There\u0026#39;s really an awakening of the importance of global relationships in higher education. There\u0026#39;s much more sustenance taking place now. Governments are mostly working with higher education to facilitate interactions. This conference was a great expression of that.\u0026quot;\r\n\r\nThe conference coincided with the CONAHEC\u0026#39;s 20th year of operation, and the next 20 years of international higher education was a big focus of many discussions.\r\n\r\nOn Friday, a panel of representatives from organizations in the United States, Mexico and Canada discussed their thoughts on the future of higher education during the conference\u0026#39;s closing plenary session.\r\n\r\n\u0026quot;We all know we live in a rapidly globalizing world,\u0026quot; said Maurits van Rooijen, president of the Compostela Group of Universities, a nonprofit organization based in Spain that promotes and executes collaborations between higher-education institutions around the world. \u0026quot;Higher education, with simple common sense, cannot be immune to globalization. ... On the contrary, we should not want to be immune to that. We should be at the cutting edge of it.\u0026quot;\r\n\r\nVan Rooijen emphasized that collaborations among universities across the globe will be necessary to help students succeed.\r\n\r\n\u0026quot;A major theme, obviously, for the next 20 years plus is globalization,\u0026quot; he said. \u0026quot;It\u0026#39;s not a fashion, it\u0026#39;s not something which will pass by. Higher education and globalization will have to have direct interaction if we as educators want to stay relevant to what is happening in the world. ... Together, we are stronger than as individual institutions.\u0026quot;\r\n\r\nJohn E. Fowler, assistant director of the State University of New York Center for Collaborative Online Learning, said that student exchange programs still prove to be the most common way for institutions to encourage their students to get international experience, although improving access to such programs will be key in the future.\r\n\r\n\u0026quot;As we\u0026#39;ve heard throughout the couple of days here, study abroad remains the flagship activity that we go about to bring those international perspectives to our students,\u0026quot; Fowler said. \u0026quot;The vast majority of our students do not get such an experience. ... We also look towards bringing international students onto our campuses to internationalize our campus environment, but we all know there\u0026#39;s challenge inherent in getting them to interact on a deep level with our local student populations.\u0026quot;\r\n\r\nIn addition to study-abroad programs, technology also will prove crucial to helping students secure such experiences.\r\n\r\n\u0026quot;I feel quite strongly that the influences of technology on how we deliver education \u0026ndash; how we deliver international education \u0026ndash; is still in its infancy,\u0026quot; he said. \u0026quot;We think, as we look forward to the next 20 years, that technology can really be a transformative power in the way we deliver international education to our students.\u0026quot;\r\n",
            "field_impact_map_locations":"\n  \n                                                              \n  ",
            "UUID":"5f1edf1a-b8bb-4c77-a7ca-67b1ebff7ccc",
            "Byline":"Amanda Ballard",
            "Date of Publication":"\u003Cspan class=\u0022date-display-single\u0022 property=\u0022dc:date\u0022 datatype=\u0022xsd:dateTime\u0022 content=\u00222014-10-13T00:00:00-07:00\u0022\u003EMonday, October 13, 2014\u003C\/span\u003E",
            "Story images":"\u003Cimg typeof=\u0022foaf:Image\u0022 src=\u0022http:\/\/uanews.dev\/sites\/default\/files\/story-images\/North%20America.jpg\u0022 width=\u00222560\u0022 height=\u00221600\u0022 alt=\u0022\u0022 \/\u003E, \u003Cimg typeof=\u0022foaf:Image\u0022 src=\u0022http:\/\/uanews.dev\/sites\/default\/files\/story-images\/hart_0.JPG\u0022 width=\u00222302\u0022 height=\u00221992\u0022 alt=\u0022UA President Ann Weaver Hart speaks during the welcome reception for the 16th Consortium for North American Higher Education Collaboration Conference, hosted by the UA. (Photo courtesy of the Office of Global Initiatives)\u0022 title=\u0022UA President Ann Weaver Hart speaks during the welcome reception for the 16th Consortium for North American Higher Education Collaboration Conference, hosted by the UA. (Photo courtesy of the Office of Global Initiatives)\u0022 \/\u003E, \u003Cimg typeof=\u0022foaf:Image\u0022 src=\u0022http:\/\/uanews.dev\/sites\/default\/files\/story-images\/DSC_0158_0.jpg\u0022 width=\u00224000\u0022 height=\u00222657\u0022 alt=\u0022Representatives from education, government and industry agencies across North America attended the conference. (Photo courtesy of the Office of Global Initiatives)\u0022 title=\u0022Representatives from education, government and industry agencies across North America attended the conference. (Photo courtesy of the Office of Global Initiatives)\u0022 \/\u003E, \u003Cimg typeof=\u0022foaf:Image\u0022 src=\u0022http:\/\/uanews.dev\/sites\/default\/files\/story-images\/DSC_0299_0.JPG\u0022 width=\u00224014\u0022 height=\u00222710\u0022 alt=\u0022Globalization was a focus of discussion during the conference\u0026#039;s closing plenary session. (Photo courtesy of the Office of Global Initiatives)\u0022 title=\u0022Globalization was a focus of discussion during the conference\u0026#039;s closing plenary session. (Photo courtesy of the Office of Global Initiatives)\u0022 \/\u003E",
            "Short Summary":"Technology and student exchanges are key to collaborations, according to participants of a UA-hosted conference.",
            "Path":"http:\/\/uanews.dev\/story\/what-s-the-future-of-international-higher-ed"
         }
      },
      {
         "type":"Feature",
         "geometry":{
            "type":"Point",
            "coordinates":[
               -111.9839965,
               33.3426673
            ]
         },
         "properties":{
            "name":"A Feast of Hot Topics for Foodies",
            "description":"Food can unite humanity, bringing sustenance, comfort, joy and connection. At the same time, it can be a source of confusion, stress, and environmental and socioeconomic distress.\r\n\r\nIn this year\u0026#39;s installment of the University of Arizona College of Social and Behavioral Sciences\u0026#39; Downtown Lecture Series, five faculty members will talk about various facets of food, a topic that holds universal appeal.\r\n\r\nBeginning Oct. 15, the series, which will air via live streaming at various locations in Tucson and Phoenix, will be held 6:30-7:30 p.m. on Wednesdays at the Fox Tucson Theatre, 17 W. Congress St.\u0026nbsp;\r\n\r\n\u0026quot;Through our Downtown Lecture Series, we are promoting downtown as a vibrant place to live, work, play and learn,\u0026quot; said Lydia Breunig, director of community outreach and special projects for the College of Social and Behavioral Sciences.\r\n\r\n\u0026quot;Focusing on food this year gives us the opportunity to bring the community together for in-depth discussions in a location where attendees can enjoy some of Tucson\u0026rsquo;s best dining establishments before and after the lectures,\u0026quot; Breunig said.\r\n\r\nSeating will be first-come, first-served. However, to secure seats and avoid lines, attendees may pick up free tickets in advance (up to four tickets per person) at the Fox Tucson Theatre ticket booth beginning at 4 p.m. on the day of each lecture.\r\n\r\nThe TEP\/UniSource auditorium, located just two blocks from the Fox Tucson Theatre at 88 E. Broadway, is the official overflow alternative and will screen the series live.\r\n\r\nAlso, businesses and community groups across Arizona will host viewing opportunities. Satellite location information is available online, and locations include:\r\n\r\nMaker House, 283 N. Stone Ave., Tucson\r\n\r\nMercado San Agustin, 100 S. Avenida del Convento, #200, Tucson\r\n\r\nPhoenix Public Market, 721 N. Central Ave., Phoenix\r\n\r\nGreen Valley Recreation Center\u0026rsquo;s East Social Center, 7 S. Abrego Drive, Green Valley\r\n\r\nStreaming to these sites will be provided courtesy of Arizona Public Media via its On Demand page: https:\/\/ondemand.azpm.org\/live\/.\r\n\r\nAlso, the lectures will be streamed at the Gallagher Theatre, located in the Student Union Memorial Center, 1303 E. University Blvd. A student group will sponsor each lecture viewing and host a Q\u0026amp;A with experts, to be moderated by UA\u0026nbsp;nutritionist Christine Carlson, at the close of the lecture. The Oct. 15 lecture is sponsored by the UA Compost Cats, and the Union will offer a thematic food special on the day of each lecture.\r\n\r\nThe Downtown Lecture Series began in 2013 with a focus on happiness. The Fox Theatre was sold out each night of the series, with 1,200 people attending the live lectures. Hundreds more watched simulcasts of the lectures at overflow locations in Tucson during the inaugural year.\u0026nbsp;\r\n\r\nThe Arizona Daily Star will host live chats with the faculty members on Fridays following the lectures. The newspaper also will publish recaps written by UA science journalism students under the supervision of Carol Schwalbe, an associate professor in the UA School of Journalism.\r\n\r\nAlso, the College of Social and Behavioral Sciences is partnering with Pueblo High School to integrate the food series into its curriculum. Eighteen high school students will attend the lectures and also read about food as part of their cultural studies course. Each day after the lecture, the speaker will visit the high school to speak with students.\r\n\r\nMore information is available on the Downtown Lecture Series site. This year\u0026#39;s lectures are:\r\n\r\nOct. 15: \u0026quot;Changing Geographies of Food\u0026quot; with Diana Liverman, co-director of the Institute of the Environment and Regents\u0026rsquo; Professor in the School of Geography and Development. Liverman will speak about food choices and the state and geographies of our food system, tracing trends and identifying choices to promote a more sustainable, secure future around the world.\r\n\r\nOct. 22:\u0026nbsp;\u0026quot;Tucson: City of Gastronomy, Hub for Food Diversity,\u0026quot; to be presented by Gary Nabhan, the UA Kellogg Endowed Chair in Sustainable Food Systems and a research social scientist at the Southwest Center. Nabhan will discuss how Tucson has become a model for re-diversifying the American diet, highlighting how agencies and organizations collaborate to address food justice, democracy and heritage within the city.\r\n\r\nOct. 29:\u0026nbsp;\u0026quot;We Eat What We Are\u0026quot; with Maribel Alvarez, an associate research professor in the English department and associate research social scientist with the Southwest Center. Alvarez will provide an anthropologist\u0026#39;s perspective on food, explaining how people define themselves, and others, through daily food habits, traditions and practices.\r\n\r\nNov. 5:\u0026nbsp;\u0026quot;Edible Roman Empire,\u0026quot; presented by Emma Blake, an associate professor in the School of Anthropology. Blake will discuss recent discoveries that reveal new information about the Roman Empire\u0026#39;s foodways and their impact on nutrition, life expectancy and culinary heritage. She also will discuss contemporary parallels.\r\n\r\nNov. 12:\u0026nbsp;\u0026quot;Food for Pleasure, Vitality and Health,\u0026quot; to be presented by Victoria Maizes, executive director of the Arizona Center for Integrative Medicine. Maizes will demystify the latest diet trends, such as the gluten-free and Mediterranean diets, and offer strategies for selecting food.\r\n",
            "field_impact_map_locations":"\n  \n                                                              \n  ",
            "UUID":"df3ad532-a155-472d-bec8-f275c9157c40",
            "Byline":null,
            "Date of Publication":"\u003Cspan class=\u0022date-display-single\u0022 property=\u0022dc:date\u0022 datatype=\u0022xsd:dateTime\u0022 content=\u00222014-10-10T00:00:00-07:00\u0022\u003EFriday, October 10, 2014\u003C\/span\u003E",
            "Story images":"\u003Cimg typeof=\u0022foaf:Image\u0022 src=\u0022http:\/\/uanews.dev\/sites\/default\/files\/story-images\/ice-375361.jpg\u0022 width=\u00225615\u0022 height=\u00223661\u0022 alt=\u0022\u0022 \/\u003E, \u003Cimg typeof=\u0022foaf:Image\u0022 src=\u0022http:\/\/uanews.dev\/sites\/default\/files\/story-images\/FOOD-LOGO-plate-text-2lines-01.png\u0022 width=\u00222700\u0022 height=\u00223450\u0022 alt=\u0022Title sponsors for the 2014 Downtown Lecture Series are the Arizona Daily Star, Tucson Medical Center, Magellan Circle Society and UA Student Affairs and Enrollment Management, with more than two dozen additional sponsors, including Arizona Public Media, Local First Arizona and the Fox Tucson Theatre.\u0022 title=\u0022Title sponsors for the 2014 Downtown Lecture Series are the Arizona Daily Star, Tucson Medical Center, Magellan Circle Society and UA Student Affairs and Enrollment Management, with more than two dozen additional sponsors, including Arizona Public Media, Local First Arizona and the Fox Tucson Theatre.\u0022 \/\u003E, \u003Cimg typeof=\u0022foaf:Image\u0022 src=\u0022http:\/\/uanews.dev\/sites\/default\/files\/story-images\/IMG_4639bw.jpg\u0022 width=\u00223744\u0022 height=\u00224680\u0022 alt=\u0022Diana Liverman\u0022 title=\u0022Diana Liverman\u0022 \/\u003E, \u003Cimg typeof=\u0022foaf:Image\u0022 src=\u0022http:\/\/uanews.dev\/sites\/default\/files\/story-images\/Gary%20Paul%20Nabhan%20bw3%20%282%29.jpg\u0022 width=\u00223386\u0022 height=\u00224233\u0022 alt=\u0022Gary Nabhan\u0022 title=\u0022Gary Nabhan\u0022 \/\u003E, \u003Cimg typeof=\u0022foaf:Image\u0022 src=\u0022http:\/\/uanews.dev\/sites\/default\/files\/story-images\/IMG_4597bw.jpg\u0022 width=\u00223744\u0022 height=\u00224680\u0022 alt=\u0022Emma Blake\u0022 title=\u0022Emma Blake\u0022 \/\u003E, \u003Cimg typeof=\u0022foaf:Image\u0022 src=\u0022http:\/\/uanews.dev\/sites\/default\/files\/story-images\/IMG_4625bw.jpg\u0022 width=\u00223706\u0022 height=\u00224632\u0022 alt=\u0022Maribel Alvarez\u0022 title=\u0022Maribel Alvarez\u0022 \/\u003E, \u003Cimg typeof=\u0022foaf:Image\u0022 src=\u0022http:\/\/uanews.dev\/sites\/default\/files\/story-images\/IMG_4613bw.jpg\u0022 width=\u00223744\u0022 height=\u00224680\u0022 alt=\u0022Victoria Maizes\u0022 title=\u0022Victoria Maizes\u0022 \/\u003E",
            "Short Summary":"The UA College of Social and Behavioral Sciences is hosting its second annual Downtown Lecture Series at the Fox Tucson Theatre beginning Oct. 15. ",
            "Path":"http:\/\/uanews.dev\/story\/a-feast-of-hot-topics-for-foodies"
         }
      },
      {
         "type":"Feature",
         "geometry":{
            "type":"Point",
            "coordinates":[
               -111.9400054,
               33.4255104
            ]
         },
         "properties":{
            "name":"Alison Deming Celebrates \u0026#039;the Long Story of Human Life\u0026#039;",
            "description":"Alison Hawthorne Deming\u0026nbsp;turns back into a student when she reads writers such as Rachel Carson, James Baldwin and Joan Didion. Environmentally inclined or otherwise, they have influenced the University of Arizona creative writing professor.\r\n\r\nShe wonders: How do they create the self as a character in the work? How do they frame the personal journey within a cultural context? How do they combine science smarts with a sensual engagement with experience?\u0026nbsp;\r\n\r\nThose are some of the details that Deming seeks to absorb from the masters, but readers would do well to visit her own work and see such questions answered with grace and skill.\r\n\r\nDeming\u0026#39;s \u0026quot;Zoologies: On Animals and the Human Spirit,\u0026quot; an essay compilation, was released on Oct. 1 by Milkweed Editions.\u0026nbsp;Since her first book, the Walt Whitman Award-winning \u0026quot;Science and Other Poems\u0026quot; in 1994, she repeatedly has returned to the complicated bond between people and their planet.\r\n\r\n\u0026ldquo;I have a Ripley\u0026rsquo;s Believe-It-or-Not relationship with science,\u0026rdquo; Deming says. \u0026ldquo;Reading (science) or hanging out with people who do science keeps me going. And in this time of so many diminishments to nature and culture, science is necessary to understand our situation and work toward a more\u0026nbsp;just and\u0026nbsp;sustainable future.\r\n\r\n\u0026ldquo;As a writer,\u0026nbsp;my intentions\u0026nbsp;are not\u0026nbsp;didactic. That\u0026#39;s for the classroom. But my writing is fed by the excitement I find in research\u0026mdash;intellectual adventuring\u0026mdash;and I want that energy of discovery to be apparent in the work and to become contagious in my readers.\u0026rdquo;\r\n\r\n\u0026quot;Zoologies\u0026quot; expounds on wildlife in all its dizzying diversity: crane broods and ant colonies, felines foreign (cheetahs) and familiar (house cats), species that make up the tragicomedy of our imperiled environmental heritage.\r\n\r\nThe compilation\u0026nbsp;\u0026quot;continues my fascination with the long story of human life and its relationship with our fellow creatures on the planet,\u0026rdquo; Deming says. \u0026ldquo;It asks: What is the place of animals in the human imagination? How have art and science, mythology and religion, all contributed to our understanding of animals? In terms of craft, the book explores the short essay as a form, bringing some of poetry\u0026#39;s compression to bear upon prose.\u0026rdquo;\r\n\r\nThe book, her 10th, already has garnered favorable reviews. Novelist Scott Russell Sanders referred to the text as \u0026ldquo;artful essays\u0026rdquo; penned by \u0026ldquo;a brilliant guide in a dark time.\u0026rdquo; Publishers Weekly wrote: \u0026ldquo;Deming\u0026rsquo;s writing is both precise and intricate, allowing her to gracefully transition from natural history to memoir. This articulate compilation is highly recommended for lovers of words and nature.\u0026rdquo;\r\n\r\nDeming\u0026rsquo;s earlier work received a Pushcart Prize and two fellowships from the National Endowment for the Arts. She recently completed a book of poetry, \u0026quot;Stairway to Heaven,\u0026quot;\u0026nbsp;and is working on what she calls \u0026ldquo;a cultural memoir\u0026rdquo; of her grandmother and great-grandmother, who worked as dressmakers in New York in the Gilded Age (late 19th century).\r\n\r\nBoth of those projects are typical of her investment in the past and appreciation for a diversity of forms.\r\n\r\n\u0026ldquo;To be a writer is to try to convey what it\u0026#39;s like to be alive at this time in history as opposed to any other,\u0026rdquo; Deming says. \u0026ldquo;We\u0026#39;re part of that long continuity, just as we\u0026#39;re part of the long story of evolution. And some consolation, some freedom from the\u0026nbsp;burdens\u0026nbsp;of self, comes from knowing such things, from writing one\u0026#39;s way into them.\u0026rdquo;\r\n\r\nDeming recently was named as one of the inaugural Agnese Nelms Haury Chairs in Environment and Social Justice. The initiative, which recognizes top faculty whose work involves the environment, social justice and\/or the Southwest, is part of a broader program under the Haury banner that will \u0026quot;foster the kinds of interdisciplinary scholarship and community engagement that can really make a difference in this time of great challenge,\u0026rdquo; Deming says.\r\n\r\nAlthough Deming, a faculty member in the College of Social and Behavioral Sciences, is not directly involved this year, several others from the UA are part of Humanities Week from Oct. 13-17.\u0026nbsp;Faculty from the College of Humanities will deliver talks heavily focused on women and gender issues. Topics range from the femininity of Japanese Harajuku girls to images of cosmopolitan women during the German Weimar Republic. For more information on Humanities Week, click here.\r\n",
            "field_impact_map_locations":"\n  \n                                                              \n  ",
            "UUID":"bf38151c-b857-48b2-832f-551d29f2c56f",
            "Byline":"Candice Childress ",
            "Date of Publication":"\u003Cspan class=\u0022date-display-single\u0022 property=\u0022dc:date\u0022 datatype=\u0022xsd:dateTime\u0022 content=\u00222014-10-13T00:00:00-07:00\u0022\u003EMonday, October 13, 2014\u003C\/span\u003E",
            "Story images":"\u003Cimg typeof=\u0022foaf:Image\u0022 src=\u0022http:\/\/uanews.dev\/sites\/default\/files\/story-images\/Alison%20Deming..jpg\u0022 width=\u00222461\u0022 height=\u00223711\u0022 alt=\u0022\u0022 \/\u003E, \u003Cimg typeof=\u0022foaf:Image\u0022 src=\u0022http:\/\/uanews.dev\/sites\/default\/files\/story-images\/Zoologies.jpg\u0022 width=\u0022230\u0022 height=\u0022356\u0022 alt=\u0022\u0022 \/\u003E",
            "Short Summary":"\u0026quot;Zoologies: On Animals and the Human Spirit,\u0026quot; an essay compilation, was released on Oct. 1. ",
            "Path":"http:\/\/uanews.dev\/story\/alison-deming-celebrates-the-long-story-of-human-life"
         }
      },
      {
         "type":"Feature",
         "geometry":{
            "type":"Point",
            "coordinates":[
               -114.6276916,
               32.6926512
            ]
         },
         "properties":{
            "name":"4-H Students Have a Blastoff With UA-Designed Experiment ",
            "description":"It\u0026#39;s not every day that NASA scientists ask kids to design and launch rockets that could deliver food to inhabitants on a storm-ravaged, isolated Pacific island.\r\n\r\nOn Oct. 8, thousands of young students across the country took up that challenge as part of 4-H\u0026#39;s 2014 National Youth Science Day. The event is held annually to encourage student involvement in STEM-related fields. Each year, 4-H\u0026#39;ers nationwide participate in the same science experiment.\r\n\r\n\u0026quot;4-H is more than cows and cooking,\u0026quot; said Kirk Astroth, director of Arizona 4-H Youth Development. \u0026quot;Everything we do is about science. We try to keep up with the changing needs and interests of kids \u0026ndash; we teach app development, photography, GPS and rocketry.\u0026quot;\r\n\r\nThis year\u0026#39;s experiment, called \u0026quot;Rockets to the Rescue,\u0026quot;\u0026nbsp;was designed by UA Cooperative Extension and Arizona 4-H Youth Development, in collaboration with the College of Agriculture and Life Sciences\u0026#39; Department of Nutritional Sciences, the College of Engineering, the College of Education, the UA STEM Learning Center, Flandrau Science Center \u0026amp; Planetarium, Northern Arizona University\u0026#39;s Center for Science Teaching and Learning, Raytheon Inc. and the Arizona Center for Afterschool Excellence.\r\n\r\nMore than 900 Rockets to the Rescue events were registered, including several in Italy and the United Kingdom.\r\n\r\nNearly 100 4-H\u0026#39;ers participated in National Youth Science Day at the UA\u0026#39;s Campus Agricultural Center. At the event, they were challenged by NASA scientists to design rockets that could safely deliver high-energy food to a starving population stranded on a fictional, typhoon-ravaged Pacific island.\r\n\r\n\u0026quot;Rockets to the Rescue teaches kids about aerospace engineering, nutritional sciences and consumer economics,\u0026quot; Astroth said. \u0026quot;This is much bigger than any of our previous experiments \u0026ndash; it really grabs kids\u0026#39; imaginations.\u0026quot;\r\n\r\nThe fictional scenario took a very real turn when typhoon Haiyan struck the Philippines last November, a month after Rockets to the Rescue was conceived. Aid workers struggled to get adequate nutrition to survivors on isolated islands. The death toll exceeded 6,000.\r\n\r\n\u0026quot;When people think about starving populations, they think about food shortages, but it\u0026#39;s more of a food-delivery issue than it is a quantity issue,\u0026quot; Astroth said. \u0026quot;We wanted the kids to think about how they could safely deliver food to people while it\u0026#39;s still fresh.\u0026quot;\r\n\r\nAt the start of the event, teams of two were formed and given about 20 minutes to design their rockets using simple materials such as PVC pipe, paper, tape, string, cotton balls and plastic bags. Aside from a few basic instructions, 4-H\u0026#39;ers were free to create their rockets in any fashion.\r\n\r\nThe young engineers had to consider variables such as the rocket\u0026#39;s launch angle and weight, as well as the nutrient density and cost efficiency of the payload. \u0026nbsp;The rockets were then launched at a target 30 feet away.\r\n\r\n\u0026quot;In this experiment, there\u0026#39;s no right answer,\u0026quot; explained Eric Larsen, a Pima County 4-H Youth Development agent who aided in the experiment\u0026#39;s design. \u0026quot;There are millions of possibilities. We\u0026#39;re not prescribing kids the right way to do it, we\u0026#39;re asking them, \u0026#39;What do you think is the right way?\u0026#39; Then we let them find the answer themselves.\u0026quot;\r\n\r\nBefore launching, each team had the opportunity to present its rocket design to the rest of the group and explain how it intended to reach the target. The exercise reflected how real scientists and engineers have to communicate their designs and experiments to others.\r\n\r\nThen came the big launch. Dozens of multicolored rockets of all shapes and sizes soared across the Agricultural Center\u0026#39;s livestock arena. After each launch, 4-H\u0026#39;ers recovered their rockets and returned to the drawing board, altering their designs to make them more effective. After a few rounds of experimentation, nearly every team was hitting the target.\r\n\r\n\u0026quot;This truly is inquiry-based learning,\u0026quot; Astroth said. \u0026quot;Letting the kids have the experience before you tell them what to do is how you stimulate creativity.\u0026quot;\r\n\r\nThis year\u0026#39;s event also collaborated with NASA\u0026#39;s Armstrong Flight Research Center in California as part of an agency-wide Summer of Innovation program. The goal of the program is to engage and train the next generation of STEM leaders. Armstrong\u0026#39;s director of education, Karla Shy, worked with Astroth and colleagues to develop the experiment and attended the Oct. 8 event at the UA.\r\n\r\n\u0026quot;It\u0026#39;s amazing to see the kids thinking through the problem and discovering what they can do,\u0026quot; Shy said. \u0026quot;They change one variable at a time, and they keep getting better and better.\u0026quot;\r\n\r\nAstroth and Shy emphasized that the most effective way to bring STEM education to as many students as possible is to train other educators. Astroth, who has trained 150 4-H leaders in Arizona alone, recently traveled to New York to train YMCA directors to host events at more than 200 different sites. He even made a trip to Nepal to perform the Rockets to the Rescue experiment with local youth and their leaders.\r\n\r\nThe 4-H experience offers youth access to world-class UA faculty and facilities, Astroth said. He said he hopes eventually to offer college credit through 4-H activities for those interested in attending the UA.\r\n\r\n\u0026quot;4-H is your first class from the University of Arizona,\u0026quot; he said.\r\n\r\nThe organizers\u0026#39; enthusiasm was matched by that of the participants.\r\n\r\n\u0026quot;Experiments like this keep you on your feet and keep you thinking,\u0026quot; said Elizabeth Young, 17, who hopes to attend the UA next year. \u0026quot;4-H is a great program. There\u0026#39;s something for everyone.\u0026quot;\r\n\r\n\u0026quot;I\u0026#39;ve always had a thing for rockets, they\u0026#39;re really cool,\u0026quot; said Rory Maciulla, 10, who also has participated in photography projects and raising livestock. \u0026quot;4-H is a really good thing. There\u0026#39;s so many things I like to do. I\u0026#39;m definitely going to keep coming back.\u0026quot;\r\n",
            "field_impact_map_locations":"\n  \n                                                              \n  ",
            "UUID":"d2979f62-c84a-4021-b9d1-4f13bbf96752",
            "Byline":"Raymond Sanchez, NASA Space Grant intern",
            "Date of Publication":"\u003Cspan class=\u0022date-display-single\u0022 property=\u0022dc:date\u0022 datatype=\u0022xsd:dateTime\u0022 content=\u00222014-10-13T00:00:00-07:00\u0022\u003EMonday, October 13, 2014\u003C\/span\u003E",
            "Story images":"\u003Cimg typeof=\u0022foaf:Image\u0022 src=\u0022http:\/\/uanews.dev\/sites\/default\/files\/story-images\/boy-crouching-crop.jpg\u0022 width=\u0022625\u0022 height=\u0022324\u0022 alt=\u0022A 4-H National Youth Science Day participant prepares a rocket for launch. (Photo: Ian Brewer)\u0022 title=\u0022A 4-H National Youth Science Day participant prepares a rocket for launch. (Photo: Ian Brewer)\u0022 \/\u003E, \u003Cimg typeof=\u0022foaf:Image\u0022 src=\u0022http:\/\/uanews.dev\/sites\/default\/files\/story-images\/girls_0.jpg\u0022 width=\u00224306\u0022 height=\u00223456\u0022 alt=\u0022The goal of \u0026quot;Rockets to the Rescue\u0026quot; is to encourage youth to become involved in STEM fields. (Photo: Ian Brewer)\u0022 title=\u0022The goal of \u0026quot;Rockets to the Rescue\u0026quot; is to encourage youth to become involved in STEM fields. (Photo: Ian Brewer)\u0022 \/\u003E, \u003Cimg typeof=\u0022foaf:Image\u0022 src=\u0022http:\/\/uanews.dev\/sites\/default\/files\/story-images\/boys%20at%20table.jpg\u0022 width=\u00225184\u0022 height=\u00223456\u0022 alt=\u0022Junior rocket scientists attach a payload to their rocket prototype. (Photo: Ian Brewer)\u0022 title=\u0022Junior rocket scientists attach a payload to their rocket prototype. (Photo: Ian Brewer)\u0022 \/\u003E",
            "Short Summary":"Thousands of youth all over the U.S. and in Europe participated in a UA-designed rocket experiment for 4-H National Youth Science Day.",
            "Path":"http:\/\/uanews.dev\/story\/4-h-students-have-a-blastoff-with-ua-designed-experiment"
         }
      }
   ]
}